1;Mi Maestro el pulpo;.\assets\img\video1.jpg;Popular
2;13 reasons why;.\assets\img\video2.jpg;Tendencia
3;the sinner;.\assets\img\video3.jpg;Serie
4;viajeros;.\assets\img\video4.jpg;Popular
5;emily en paris;.\assets\img\video5.jpg;Tendencia
